What the Package Does (One Line, Title Case) • sigvis
…
Visualise catalogues

# Load library containing results of TCGA mutational signature analysis
library(TCGAcatalogues)

# Load a catalogue
tally <- catalogues_load("BRCA", type = "SBS_96")

# Select a single sample of interest
sample = "TCGA-5L-AAT1-01A-12D-A41F-09"
tally_single_sample <- tally[[sample]]

tally_single_sample
#> # A tibble: 96 × 4
#>    channel type  fraction count
#>    <chr>   <chr>    <dbl> <int>
#>  1 A[C>A]A C>A   0.00151      3
#>  2 A[C>A]C C>A   0.00151      3
#>  3 A[C>A]G C>A   0.000503     1
#>  4 A[C>A]T C>A   0            0
#>  5 A[C>G]A C>G   0.00151      3
#>  6 A[C>G]C C>G   0.00151      3
#>  7 A[C>G]G C>G   0            0
#>  8 A[C>G]T C>G   0.00201      4
#>  9 A[C>T]A C>T   0.00402      8
#> 10 A[C>T]C C>T   0.00151      3
#> # ℹ 86 more rows
…
